[
    {
        "id": "bar",
        "title": "Staafgrafiek staand"
    },
    {
        "id": "lines",
        "title": "Lijngrafiek met interactieve legenda"
    },
    {
        "id": "population",
        "title": "Gestapelde staafgrafiek met lijn"     
    },
    {
        "id": "donut",
        "title": "Donutgrafiek met totaal"     
    },
    {
        "id": "map",
        "title": "Kaart"     
    }
]